"Date","Year","Month","Day","DayOfWeek"
"2005-10-01",2005,10,1,"Saturday"
"2005-10-02",2005,10,2,"Sunday"
"2005-10-03",2005,10,3,"Monday"
"2005-10-04",2005,10,4,"Tuesday"
"2005-10-05",2005,10,5,"Wednesday"
"2005-10-06",2005,10,6,"Thursday"
"2005-10-07",2005,10,7,"Friday"
"2005-10-08",2005,10,8,"Saturday"
"2005-10-09",2005,10,9,"Sunday"
"2005-10-10",2005,10,10,"Monday"
"2005-10-11",2005,10,11,"Tuesday"
"2005-10-12",2005,10,12,"Wednesday"
"2005-10-13",2005,10,13,"Thursday"
"2005-10-14",2005,10,14,"Friday"
"2005-10-15",2005,10,15,"Saturday"
"2005-10-16",2005,10,16,"Sunday"
"2005-10-17",2005,10,17,"Monday"
"2005-10-18",2005,10,18,"Tuesday"
"2005-10-19",2005,10,19,"Wednesday"
"2005-10-20",2005,10,20,"Thursday"
"2005-10-21",2005,10,21,"Friday"
"2005-10-22",2005,10,22,"Saturday"
"2005-10-23",2005,10,23,"Sunday"
"2005-10-24",2005,10,24,"Monday"
"2005-10-25",2005,10,25,"Tuesday"
"2005-10-26",2005,10,26,"Wednesday"
"2005-10-27",2005,10,27,"Thursday"
"2005-10-28",2005,10,28,"Friday"
"2005-10-29",2005,10,29,"Saturday"
"2005-10-30",2005,10,30,"Sunday"
"2005-10-31",2005,10,31,"Monday"
"2005-11-01",2005,11,1,"Tuesday"
"2005-11-02",2005,11,2,"Wednesday"
"2005-11-03",2005,11,3,"Thursday"
"2005-11-04",2005,11,4,"Friday"
"2005-11-05",2005,11,5,"Saturday"
"2005-11-06",2005,11,6,"Sunday"
"2005-11-07",2005,11,7,"Monday"
"2005-11-08",2005,11,8,"Tuesday"
"2005-11-09",2005,11,9,"Wednesday"
"2005-11-10",2005,11,10,"Thursday"
"2005-11-11",2005,11,11,"Friday"
"2005-11-12",2005,11,12,"Saturday"
"2005-11-13",2005,11,13,"Sunday"
"2005-11-14",2005,11,14,"Monday"
"2005-11-15",2005,11,15,"Tuesday"
"2005-11-16",2005,11,16,"Wednesday"
"2005-11-17",2005,11,17,"Thursday"
"2005-11-18",2005,11,18,"Friday"
"2005-11-19",2005,11,19,"Saturday"
"2005-11-20",2005,11,20,"Sunday"
"2005-11-21",2005,11,21,"Monday"
"2005-11-22",2005,11,22,"Tuesday"
"2005-11-23",2005,11,23,"Wednesday"
"2005-11-24",2005,11,24,"Thursday"
"2005-11-25",2005,11,25,"Friday"
"2005-11-26",2005,11,26,"Saturday"
"2005-11-27",2005,11,27,"Sunday"
"2005-11-28",2005,11,28,"Monday"
"2005-11-29",2005,11,29,"Tuesday"
"2005-11-30",2005,11,30,"Wednesday"
"2005-12-01",2005,12,1,"Thursday"
"2005-12-02",2005,12,2,"Friday"
"2005-12-03",2005,12,3,"Saturday"
"2005-12-04",2005,12,4,"Sunday"
"2005-12-05",2005,12,5,"Monday"
"2005-12-06",2005,12,6,"Tuesday"
"2005-12-07",2005,12,7,"Wednesday"
"2005-12-08",2005,12,8,"Thursday"
"2005-12-09",2005,12,9,"Friday"
"2005-12-10",2005,12,10,"Saturday"
"2005-12-11",2005,12,11,"Sunday"
"2005-12-12",2005,12,12,"Monday"
"2005-12-13",2005,12,13,"Tuesday"
"2005-12-14",2005,12,14,"Wednesday"
"2005-12-15",2005,12,15,"Thursday"
"2005-12-16",2005,12,16,"Friday"
"2005-12-17",2005,12,17,"Saturday"
"2005-12-18",2005,12,18,"Sunday"
"2005-12-19",2005,12,19,"Monday"
"2005-12-20",2005,12,20,"Tuesday"
"2005-12-21",2005,12,21,"Wednesday"
"2005-12-22",2005,12,22,"Thursday"
"2005-12-23",2005,12,23,"Friday"
"2005-12-24",2005,12,24,"Saturday"
"2005-12-25",2005,12,25,"Sunday"
"2005-12-26",2005,12,26,"Monday"
"2005-12-27",2005,12,27,"Tuesday"
"2005-12-28",2005,12,28,"Wednesday"
"2005-12-29",2005,12,29,"Thursday"
"2005-12-30",2005,12,30,"Friday"
"2005-12-31",2005,12,31,"Saturday"
"2006-01-01",2006,1,1,"Sunday"
"2006-01-02",2006,1,2,"Monday"
"2006-01-03",2006,1,3,"Tuesday"
"2006-01-04",2006,1,4,"Wednesday"
"2006-01-05",2006,1,5,"Thursday"
"2006-01-06",2006,1,6,"Friday"
"2006-01-07",2006,1,7,"Saturday"
"2006-01-08",2006,1,8,"Sunday"
"2006-01-09",2006,1,9,"Monday"
"2006-01-10",2006,1,10,"Tuesday"
"2006-01-11",2006,1,11,"Wednesday"
"2006-01-12",2006,1,12,"Thursday"
"2006-01-13",2006,1,13,"Friday"
"2006-01-14",2006,1,14,"Saturday"
"2006-01-15",2006,1,15,"Sunday"
"2006-01-16",2006,1,16,"Monday"
"2006-01-17",2006,1,17,"Tuesday"
"2006-01-18",2006,1,18,"Wednesday"
"2006-01-19",2006,1,19,"Thursday"
"2006-01-20",2006,1,20,"Friday"
"2006-01-21",2006,1,21,"Saturday"
"2006-01-22",2006,1,22,"Sunday"
"2006-01-23",2006,1,23,"Monday"
"2006-01-24",2006,1,24,"Tuesday"
"2006-01-25",2006,1,25,"Wednesday"
"2006-01-26",2006,1,26,"Thursday"
"2006-01-27",2006,1,27,"Friday"
"2006-01-28",2006,1,28,"Saturday"
"2006-01-29",2006,1,29,"Sunday"
"2006-01-30",2006,1,30,"Monday"
"2006-01-31",2006,1,31,"Tuesday"
"2006-02-01",2006,2,1,"Wednesday"
"2006-02-02",2006,2,2,"Thursday"
"2006-02-03",2006,2,3,"Friday"
"2006-02-04",2006,2,4,"Saturday"
"2006-02-05",2006,2,5,"Sunday"
"2006-02-06",2006,2,6,"Monday"
"2006-02-07",2006,2,7,"Tuesday"
"2006-02-08",2006,2,8,"Wednesday"
"2006-02-09",2006,2,9,"Thursday"
"2006-02-10",2006,2,10,"Friday"
"2006-02-11",2006,2,11,"Saturday"
"2006-02-12",2006,2,12,"Sunday"
"2006-02-13",2006,2,13,"Monday"
"2006-02-14",2006,2,14,"Tuesday"
"2006-02-15",2006,2,15,"Wednesday"
"2006-02-16",2006,2,16,"Thursday"
"2006-02-17",2006,2,17,"Friday"
"2006-02-18",2006,2,18,"Saturday"
"2006-02-19",2006,2,19,"Sunday"
"2006-02-20",2006,2,20,"Monday"
"2006-02-21",2006,2,21,"Tuesday"
"2006-02-22",2006,2,22,"Wednesday"
"2006-02-23",2006,2,23,"Thursday"
"2006-02-24",2006,2,24,"Friday"
"2006-02-25",2006,2,25,"Saturday"
"2006-02-26",2006,2,26,"Sunday"
"2006-02-27",2006,2,27,"Monday"
"2006-02-28",2006,2,28,"Tuesday"
"2006-03-01",2006,3,1,"Wednesday"
"2006-03-02",2006,3,2,"Thursday"
"2006-03-03",2006,3,3,"Friday"
"2006-03-04",2006,3,4,"Saturday"
"2006-03-05",2006,3,5,"Sunday"
"2006-03-06",2006,3,6,"Monday"
"2006-03-07",2006,3,7,"Tuesday"
"2006-03-08",2006,3,8,"Wednesday"
"2006-03-09",2006,3,9,"Thursday"
"2006-03-10",2006,3,10,"Friday"
"2006-03-11",2006,3,11,"Saturday"
"2006-03-12",2006,3,12,"Sunday"
"2006-03-13",2006,3,13,"Monday"
"2006-03-14",2006,3,14,"Tuesday"
"2006-03-15",2006,3,15,"Wednesday"
"2006-03-16",2006,3,16,"Thursday"
"2006-03-17",2006,3,17,"Friday"
"2006-03-18",2006,3,18,"Saturday"
"2006-03-19",2006,3,19,"Sunday"
"2006-03-20",2006,3,20,"Monday"
"2006-03-21",2006,3,21,"Tuesday"
"2006-03-22",2006,3,22,"Wednesday"
"2006-03-23",2006,3,23,"Thursday"
"2006-03-24",2006,3,24,"Friday"
"2006-03-25",2006,3,25,"Saturday"
"2006-03-26",2006,3,26,"Sunday"
"2006-03-27",2006,3,27,"Monday"
"2006-03-28",2006,3,28,"Tuesday"
"2006-03-29",2006,3,29,"Wednesday"
"2006-03-30",2006,3,30,"Thursday"
"2006-03-31",2006,3,31,"Friday"
"2006-04-01",2006,4,1,"Saturday"
"2006-04-02",2006,4,2,"Sunday"
"2006-04-03",2006,4,3,"Monday"
"2006-04-04",2006,4,4,"Tuesday"
"2006-04-05",2006,4,5,"Wednesday"
"2006-04-06",2006,4,6,"Thursday"
"2006-04-07",2006,4,7,"Friday"
"2006-04-08",2006,4,8,"Saturday"
"2006-04-09",2006,4,9,"Sunday"
"2006-04-10",2006,4,10,"Monday"
"2006-04-11",2006,4,11,"Tuesday"
"2006-04-12",2006,4,12,"Wednesday"
"2006-04-13",2006,4,13,"Thursday"
"2006-04-14",2006,4,14,"Friday"
"2006-04-15",2006,4,15,"Saturday"
"2006-04-16",2006,4,16,"Sunday"
"2006-04-17",2006,4,17,"Monday"
"2006-04-18",2006,4,18,"Tuesday"
